{
  "page": 1,
  "total_pages": 3,
  "total_results": 60,
  "results": [
    {
      "id": 101,
      "title": "Popular Movie 1",
      "poster_path": "/popular-poster-1.jpg",
      "overview": "Popular movie overview 1",
      "release_date": "2024-02-01",
      "vote_average": 9.0
    },
    {
      "id": 102,
      "title": "Popular Movie 2",
      "poster_path": "/popular-poster-2.jpg",
      "overview": "Popular movie overview 2",
      "release_date": "2024-02-02",
      "vote_average": 8.8
    }
  ]
}
